%YAML 1.1
%TAG !u! tag:unity3d.com,2011:
--- !u!114 &11400000
MonoBehaviour:
  m_ObjectHideFlags: 0
  m_CorrespondingSourceObject: {fileID: 0}
  m_PrefabInstance: {fileID: 0}
  m_PrefabAsset: {fileID: 0}
  m_GameObject: {fileID: 0}
  m_Enabled: 1
  m_EditorHideFlags: 0
  m_Script: {fileID: 11500000, guid: 88f4e24cfa5b9e048af41ff3a81c8fb6, type: 3}
  m_Name: Last Man Standing
  m_EditorClassIdentifier: 
  MaxPlayers: 8
  RequiredPlayers: 2
  StartingSpaceDust: 1000
  GameTime: 0
  StartingConstructs:
  - {fileID: 3379141720119158662, guid: 6ba974685de4c0148ad61db5570d0a60, type: 3}
  - {fileID: 3133570797338260258, guid: 0c17b2de27132424d89fdf01867fdf5a, type: 3}
