%YAML 1.1
%TAG !u! tag:unity3d.com,2011:
--- !u!114 &11400000
MonoBehaviour:
  m_ObjectHideFlags: 0
  m_CorrespondingSourceObject: {fileID: 0}
  m_PrefabInstance: {fileID: 0}
  m_PrefabAsset: {fileID: 0}
  m_GameObject: {fileID: 0}
  m_Enabled: 1
  m_EditorHideFlags: 0
  m_Script: {fileID: 11500000, guid: c05d53063313bc849ae208922f465909, type: 3}
  m_Name: Self Destruct
  m_EditorClassIdentifier: 
  Name: (Hold) Self-destruct
  ActivateInput: 57
  Icon: {fileID: 0}
